…
For each month and year, the dataframe shows the deviation of temperature from the normal (expected). Further the dataframe is in wide format.

You have two objectives in this section:

Select the year and the twelve month variables from the weather dataset. We do not need the others (J-D, D-N, DJF, etc.) for this assignment. Hint: use select() function.

Convert the dataframe from wide to ‘long’ format. Hint: use gather() or pivot_longer() function. Name the new dataframe as tidyweather, name the variable containing the name of the month as month, and the temperature deviation values as delta.

tidyweather <- weather %>% 
  select(-c("J-D","D-N","DJF","MAM","JJA","SON")) %>% 
  pivot_longer(cols="Jan":"Dec", names_to = "Month", values_to = "delta")

tidyweather

## # A tibble: 1,680 x 3
##     Year Month delta
##    <dbl> <chr> <dbl>
##  1  1880 Jan   -0.54
##  2  1880 Feb   -0.38
##  3  1880 Mar   -0.26
##  4  1880 Apr   -0.37
##  5  1880 May   -0.11
##  6  1880 Jun   -0.22
##  7  1880 Jul   -0.23
##  8  1880 Aug   -0.24
##  9  1880 Sep   -0.26
## 10  1880 Oct   -0.32
## # ... with 1,670 more rows
…
